{
  "images" : [
    {
      "idiom" : "universal",
      "filename" : "padi-logo.png",
      "scale" : "1x"
    },
    {
      "idiom" : "universal",
      "filename" : "padi-logo-black.png",
      "appearances" : [
        {
          "appearance" : "luminosity",
          "value" : "dark"
        }
      ],
      "scale" : "1x"
    },
    {
      "idiom" : "universal",
      "filename" : "padi-logo@2x.png",
      "scale" : "2x"
    },
    {
      "idiom" : "universal",
      "filename" : "padi-logo-black@2x.png",
      "appearances" : [
        {
          "appearance" : "luminosity",
          "value" : "dark"
        }
      ],
      "scale" : "2x"
    },
    {
      "idiom" : "universal",
      "filename" : "padi-logo@3x.png",
      "scale" : "3x"
    },
    {
      "idiom" : "universal",
      "filename" : "padi-logo-black@3x.png",
      "appearances" : [
        {
          "appearance" : "luminosity",
          "value" : "dark"
        }
      ],
      "scale" : "3x"
    }
  ],
  "info" : {
    "version" : 1,
    "author" : "xcode"
  }
}